Data Analysis 2 - Data Wrangling
…
To select specific columns, use select(). The first argument to this function is the data frame (df), and the subsequent arguments are the columns to keep:

# Select only a few columns
select(df, state, damage, time_of_day)

## # A tibble: 56,978 x 3
##    state damage time_of_day
##    <chr> <chr>  <chr>      
##  1 FL    M?     Day        
##  2 IN    N      Night      
##  3 N/A   <NA>   <NA>       
##  4 N/A   M?     <NA>       
##  5 N/A   M?     <NA>       
##  6 FL    N      Day        
##  7 FL    N      Night      
##  8 N/A   N      <NA>       
##  9 N/A   N      <NA>       
## 10 FL    N      Day        
## # … with 56,968 more rows

To select all columns except certain ones, put a - sign in front of the variable to exclude it:

select(df, -state, -damage, -time_of_day)

## # A tibble: 56,978 x 18
##    incident_date       airport_id airport operator atype type_eng species_id
##    <dttm>              <chr>      <chr>   <chr>    <chr> <chr>    <chr>     
##  1 2018-12-31 00:00:00 KMIA       MIAMI … AMERICA… B-73… D        UNKBL     
##  2 2018-12-29 00:00:00 KIND       INDIAN… AMERICA… B-73… D        R         
##  3 2018-12-29 00:00:00 ZZZZ       UNKNOWN AMERICA… UNKN… <NA>     R2004     
##  4 2018-12-27 00:00:00 ZZZZ       UNKNOWN AMERICA… B-73… D        N5205     
##  5 2018-12-27 00:00:00 ZZZZ       UNKNOWN AMERICA… B-73… D        J2139     
##  6 2018-12-27 00:00:00 KMIA       MIAMI … AMERICA… A-319 D        UNKB      
##  7 2018-12-27 00:00:00 KMCO       ORLAND… AMERICA… A-321 D        UNKBS     
##  8 2018-12-26 00:00:00 ZZZZ       UNKNOWN AMERICA… B-73… D        ZT001     
##  9 2018-12-23 00:00:00 ZZZZ       UNKNOWN AMERICA… A-321 D        ZT101     
## 10 2018-12-23 00:00:00 KFLL       FORT L… AMERICA… B-73… D        I1301     
## # … with 56,968 more rows, and 11 more variables: species <chr>,
## #   num_engs <dbl>, incident_month <dbl>, incident_year <dbl>, time <dbl>,
## #   height <dbl>, speed <dbl>, phase_of_flt <chr>, sky <chr>, precip <chr>,
## #   cost_repairs_infl_adj <dbl>
…
Filter the rows for wildlife impacts that occurred in DC:

filter(df, state == 'DC')

## # A tibble: 1,228 x 21
##    incident_date       state airport_id airport operator atype type_eng
##    <dttm>              <chr> <chr>      <chr>   <chr>    <chr> <chr>   
##  1 2018-10-23 00:00:00 DC    KDCA       RONALD… AMERICA… B-73… D       
##  2 2018-10-17 00:00:00 DC    KDCA       RONALD… AMERICA… B-73… D       
##  3 2018-10-16 00:00:00 DC    KDCA       RONALD… AMERICA… B-73… D       
##  4 2018-10-12 00:00:00 DC    KDCA       RONALD… AMERICA… B-73… D       
##  5 2018-09-04 00:00:00 DC    KDCA       RONALD… AMERICA… A-319 D       
##  6 2018-09-01 00:00:00 DC    KDCA       RONALD… AMERICA… A-321 D       
##  7 2018-08-31 00:00:00 DC    KIAD       WASHIN… AMERICA… A-319 D       
##  8 2018-08-23 00:00:00 DC    KDCA       RONALD… AMERICA… EMB-… D       
##  9 2018-08-13 00:00:00 DC    KIAD       WASHIN… AMERICA… MD-82 D       
## 10 2018-08-01 00:00:00 DC    KIAD       WASHIN… AMERICA… CRJ7… D       
## # … with 1,218 more rows, and 14 more variables: species_id <chr>,
## #   species <chr>, damage <chr>, num_engs <dbl>, incident_month <dbl>,
## #   incident_year <dbl>, time_of_day <chr>, time <dbl>, height <dbl>,
## #   speed <dbl>, phase_of_flt <chr>, sky <chr>, precip <chr>,
## #   cost_repairs_infl_adj <dbl>

Filter the rows for wildlife impacts that cost more than $1 million in damages:

filter(df, cost_repairs_infl_adj > 10^6)

## # A tibble: 41 x 21
##    incident_date       state airport_id airport operator atype type_eng
##    <dttm>              <chr> <chr>      <chr>   <chr>    <chr> <chr>   
##  1 2015-05-26 00:00:00 N/A   SVMI       SIMON … AMERICA… B-73… D       
##  2 2015-04-25 00:00:00 FL    KJAX       JACKSO… AMERICA… A-319 D       
##  3 2015-04-02 00:00:00 MA    KBOS       GENERA… AMERICA… B-73… D       
##  4 2001-04-02 00:00:00 N/A   LFPG       CHARLE… AMERICA… B-76… D       
##  5 2015-10-08 00:00:00 WA    KSEA       SEATTL… DELTA A… A-330 D       
##  6 2015-09-23 00:00:00 UT    KSLC       SALT L… DELTA A… B-73… D       
##  7 2008-10-25 00:00:00 UT    KSLC       SALT L… DELTA A… DC-9… D       
##  8 2007-12-02 00:00:00 N/A   GOOY       DAKAY-… DELTA A… B-76… D       
##  9 2007-11-22 00:00:00 N/A   LFMN       NICE C… DELTA A… B-76… D       
## 10 2011-07-30 00:00:00 CA    KBUR       BOB HO… SOUTHWE… B-73… D       
## # … with 31 more rows, and 14 more variables: species_id <chr>, species <chr>,
## #   damage <chr>, num_engs <dbl>, incident_month <dbl>, incident_year <dbl>,
## #   time_of_day <chr>, time <dbl>, height <dbl>, speed <dbl>,
## #   phase_of_flt <chr>, sky <chr>, precip <chr>, cost_repairs_infl_adj <dbl>
…
2.5 Sort rows with arrange()

Use the arrange() function to sort a data frame by a column. For example, if you wanted to view the least expensive accidents, you could arrange the data frame by the variable cost_repairs_infl_adj:

# Arrange by least expensive accident
df %>%
    arrange(cost_repairs_infl_adj)

## # A tibble: 56,978 x 21
##    incident_date       state airport_id airport operator atype type_eng
##    <dttm>              <chr> <chr>      <chr>   <chr>    <chr> <chr>   
##  1 2013-09-05 00:00:00 MI    KFNT       BISHOP… SOUTHWE… B-73… D       
##  2 2011-04-17 00:00:00 TX    KDFW       DALLAS… AMERICA… MD-80 D       
##  3 2018-07-10 00:00:00 NM    KABQ       ALBUQU… SOUTHWE… B-73… D       
##  4 2017-10-31 00:00:00 PA    KPIT       PITTSB… AMERICA… B-73… D       
##  5 2014-01-17 00:00:00 UT    KSLC       SALT L… SOUTHWE… B-73… D       
##  6 2006-04-28 00:00:00 TX    KIAH       GEORGE… UNITED … B-73… D       
##  7 2005-04-13 00:00:00 N/A   ZZZZ       UNKNOWN UNITED … B-76… D       
##  8 2004-06-17 00:00:00 N/A   ZZZZ       UNKNOWN UNITED … B-73… D       
##  9 2004-04-22 00:00:00 N/A   ZZZZ       UNKNOWN UNITED … B-76… D       
## 10 2018-10-20 00:00:00 TX    KDAL       DALLAS… SOUTHWE… B-73… D       
## # … with 56,968 more rows, and 14 more variables: species_id <chr>,
## #   species <chr>, damage <chr>, num_engs <dbl>, incident_month <dbl>,
## #   incident_year <dbl>, time_of_day <chr>, time <dbl>, height <dbl>,
## #   speed <dbl>, phase_of_flt <chr>, sky <chr>, precip <chr>,
## #   cost_repairs_infl_adj <dbl>

To sort in descending order, add the desc() function inside the arrange() function. For example, here are the most expensive accidents:

# Arrange by most expensive accident
df %>%
    arrange(desc(cost_repairs_infl_adj))

## # A tibble: 56,978 x 21
##    incident_date       state airport_id airport operator atype type_eng
##    <dttm>              <chr> <chr>      <chr>   <chr>    <chr> <chr>   
##  1 2009-02-03 00:00:00 CO    KDEN       DENVER… UNITED … B-75… D       
##  2 2007-11-22 00:00:00 N/A   LFMN       NICE C… DELTA A… B-76… D       
##  3 2011-09-26 00:00:00 CO    KDEN       DENVER… UNITED … B-75… D       
##  4 2017-07-11 00:00:00 CO    KDEN       DENVER… UNITED … B-73… D       
##  5 2008-10-25 00:00:00 UT    KSLC       SALT L… DELTA A… DC-9… D       
##  6 2011-07-30 00:00:00 CA    KBUR       BOB HO… SOUTHWE… B-73… D       
##  7 2001-12-06 00:00:00 MI    KDTW       DETROI… SOUTHWE… B-73… D       
##  8 2003-04-15 00:00:00 CA    KSFO       SAN FR… UNITED … B-73… D       
##  9 2005-09-06 00:00:00 CO    KDEN       DENVER… UNITED … B-73… D       
## 10 2005-04-20 00:00:00 N/A   ZZZZ       UNKNOWN UNITED … B-77… D       
## # … with 56,968 more rows, and 14 more variables: species_id <chr>,
## #   species <chr>, damage <chr>, num_engs <dbl>, incident_month <dbl>,
## #   incident_year <dbl>, time_of_day <chr>, time <dbl>, height <dbl>,
## #   speed <dbl>, phase_of_flt <chr>, sky <chr>, precip <chr>,
## #   cost_repairs_infl_adj <dbl>
…
You will often need to create new columns based on the values in existing columns. For this use mutate(). For example, let’s create a new variable converting the height variable from feet to miles:

df %>%
    mutate(height_miles = height / 5280) %>%
    select(height, height_miles)

## # A tibble: 56,978 x 2
##    height height_miles
##     <dbl>        <dbl>
##  1    700        0.133
##  2      0        0    
##  3     NA       NA    
##  4     NA       NA    
##  5     NA       NA    
##  6     NA       NA    
##  7    600        0.114
##  8     NA       NA    
##  9     NA       NA    
## 10      0        0    
## # … with 56,968 more rows

You can also create a second new column based on the first new column within the same call of mutate():

df %>%
    mutate(height_miles = height / 5280,
           height_half_miles = height_miles / 2) %>%
    select(height, height_miles, height_half_miles)

## # A tibble: 56,978 x 3
##    height height_miles height_half_miles
##     <dbl>        <dbl>             <dbl>
##  1    700        0.133            0.0663
##  2      0        0                0     
##  3     NA       NA               NA     
##  4     NA       NA               NA     
##  5     NA       NA               NA     
##  6     NA       NA               NA     
##  7    600        0.114            0.0568
##  8     NA       NA               NA     
##  9     NA       NA               NA     
## 10      0        0                0     
## # … with 56,968 more rows

You’ll notice that the variables created have a lot of NAs - that’s because there are missing data. If you wanted to remove those, you could insert a filter() in the pipe chain:

df %>%
    filter(!is.na(height)) %>%
    mutate(height_miles = height / 5280) %>%
    select(height, height_miles)

## # A tibble: 38,940 x 2
##    height height_miles
##     <dbl>        <dbl>
##  1    700       0.133 
##  2      0       0     
##  3    600       0.114 
##  4      0       0     
##  5      0       0     
##  6      0       0     
##  7    500       0.0947
##  8    100       0.0189
##  9      0       0     
## 10   1000       0.189 
## # … with 38,930 more rows
…
The group_by() function enables you to perform operations across groups within the data frame. It is typically used by inserting it in the “pipeline” before the desired group operation. For example, if we wanted to add a a new column that computed the mean height of reported wildlife impacts for each state, we could insert group_by(state) in the pipeline:

df %>%
    filter(!is.na(height)) %>%
    group_by(state) %>%          # Here we're grouping by state
    mutate(mean_height = mean(height)) %>%
    select(state, mean_height)

## # A tibble: 38,940 x 2
## # Groups:   state [59]
##    state mean_height
##    <chr>       <dbl>
##  1 FL           892.
##  2 IN           719.
##  3 FL           892.
##  4 FL           892.
##  5 TX          1177.
##  6 NY           937.
##  7 N/A          994.
##  8 N/A          994.
##  9 MD          1265.
## 10 CA           989.
## # … with 38,930 more rows
…
The group_by() function is often used together with summarize(), which collapses each group into a single-row summary of that group. For example, we collapse the result of the previous example by using summarise() instead of mutate():

df %>%
    filter(!is.na(height)) %>%
    group_by(state) %>%
    summarise(mean_height = mean(height))

## # A tibble: 59 x 2
##    state mean_height
##    <chr>       <dbl>
##  1 AB           327.
##  2 AK           334.
##  3 AL           861.
##  4 AR           968.
##  5 AZ          2134.
##  6 BC           497.
##  7 CA           989.
##  8 CO           442.
##  9 CT           811.
## 10 DC           963.
## # … with 49 more rows

You can also group by multiple columns - here let’s group by state and the airline:

df %>%
    filter(!is.na(height)) %>%
    group_by(state, operator) %>%
    summarise(mean_height = mean(height))

## # A tibble: 213 x 3
## # Groups:   state [59]
##    state operator           mean_height
##    <chr> <chr>                    <dbl>
##  1 AB    AMERICAN AIRLINES         318.
##  2 AB    UNITED AIRLINES           350 
##  3 AK    AMERICAN AIRLINES           0 
##  4 AK    DELTA AIR LINES           414.
##  5 AK    UNITED AIRLINES           311.
##  6 AL    AMERICAN AIRLINES        1038.
##  7 AL    DELTA AIR LINES           485.
##  8 AL    SOUTHWEST AIRLINES       1020.
##  9 AL    UNITED AIRLINES           375 
## 10 AR    AMERICAN AIRLINES         508.
## # … with 203 more rows

Notice that in the above examples I’ve kept the early filter to drop NAs. This is important when performing summarizing functions like mean() or sum(). If NAs are present, the result will also be NA:

df %>%
    group_by(state) %>%
    summarise(mean_height = mean(height))

## # A tibble: 59 x 2
##    state mean_height
##    <chr>       <dbl>
##  1 AB            NA 
##  2 AK           334.
##  3 AL            NA 
##  4 AR            NA 
##  5 AZ            NA 
##  6 BC            NA 
##  7 CA            NA 
##  8 CO            NA 
##  9 CT            NA 
## 10 DC            NA 
## # … with 49 more rows

Once the data are grouped, you can also summarize multiple variables at the same time (and not necessarily on the same variable). For instance, you could add two more columns computing the minimum and maximum height:

df %>%
    filter(!is.na(height)) %>%
    group_by(state, operator) %>%
    summarise(mean_height = mean(height),
              min_height = min(height),
              max_height = max(height))

## # A tibble: 213 x 5
## # Groups:   state [59]
##    state operator           mean_height min_height max_height
##    <chr> <chr>                    <dbl>      <dbl>      <dbl>
##  1 AB    AMERICAN AIRLINES         318.          0       1300
##  2 AB    UNITED AIRLINES           350           0       1400
##  3 AK    AMERICAN AIRLINES           0           0          0
##  4 AK    DELTA AIR LINES           414.          0       1700
##  5 AK    UNITED AIRLINES           311.          0       1200
##  6 AL    AMERICAN AIRLINES        1038.          0      11300
##  7 AL    DELTA AIR LINES           485.          0       5400
##  8 AL    SOUTHWEST AIRLINES       1020.          0      10000
##  9 AL    UNITED AIRLINES           375           0       2800
## 10 AR    AMERICAN AIRLINES         508.          0       3400
## # … with 203 more rows
…
